…
#### 1. Intro to Modern Data Mining

- Load the dataset and provide an overview of its structure (e.g.,
  dimensions, missing values, types of variables).

- Explain why data mining is important for this dataset.

``` r
dataset <- read_csv("customer_churn.csv", show_col_types = FALSE)

dataset
```

    ## # A tibble: 10,000 × 12
    ##    CustomerID Gender SeniorCitizen Partner Dependents Tenure PhoneService
    ##    <chr>      <chr>          <dbl> <chr>   <chr>       <dbl> <chr>       
    ##  1 CUST00001  Male               0 No      No             65 Yes         
    ##  2 CUST00002  Male               0 No      No             26 Yes         
    ##  3 CUST00003  Male               0 Yes     No             54 Yes         
    ##  4 CUST00004  Female             0 Yes     Yes            70 Yes         
    ##  5 CUST00005  Male               0 No      No             53 Yes         
    ##  6 CUST00006  Female             0 No      Yes            45 Yes         
    ##  7 CUST00007  Female             0 Yes     No             35 Yes         
    ##  8 CUST00008  Female             0 Yes     Yes            20 Yes         
    ##  9 CUST00009  Female             0 Yes     Yes            48 No          
    ## 10 CUST00010  Female             0 No      No             33 Yes         
    ## # ℹ 9,990 more rows
    ## # ℹ 5 more variables: InternetService <chr>, Contract <chr>,
    ## #   MonthlyCharges <dbl>, TotalCharges <dbl>, Churn <chr>
…
